	MNE	MNT	Observateur
0	248.550003052	248.5	1
27.2639385021	248.089996338	248.100006104	
54.5278770042	247.630004883	247.699996948	
81.7918155062	247.399993896	247.399993896	
109.055754008	246.850006104	247	
136.31969251	246.13999939	246.300003052	
163.583631012	245.910003662	245.399993896	
190.847569515	244.839996338	244.800003052	
218.111508017	244.210006714	244.300003052	
245.375446519	244.119995117	244.100006104	
272.639385021	243.830001831	243.800003052	
299.903323523	243.520004272	243.5	
327.167262025	243.13999939	243.199996948	
354.431200527	242.600006104	242.699996948	
381.695139029	242.270004272	242.300003052	
408.959077531	241.839996338	241.800003052	
436.223016033	241.309997559	241.300003052	
463.486954535	240.61000061	240.600006104	
490.750893037	240.070007324	240.100006104	
518.01483154	239.490005493	239.5	
545.278770042	239.020004272	239	
572.542708544	238.429992676	238.399993896	
599.806647046	238.300003052	238.300003052	
627.070585548	238.059997559	238	
654.33452405	244.600006104	237.600006104	
681.598462552	237.580001831	237.699996948	
708.862401054	237.679992676	237.600006104	
736.126339556	237.179992676	237.199996948	
763.390278058	236.630004883	236.600006104	
790.65421656	236.350006104	236.300003052	
817.918155062	236	236	
845.182093565	235.589996338	235.600006104	
872.446032067	235.369995117	235.399993896	
899.709970569	235.119995117	235.100006104	
926.973909071	234.800003052	234.800003052	
954.237847573	234.11000061	234.100006104	
981.501786075	233.399993896	233.399993896	
1008.76572458	233.339996338	233.300003052	
1036.02966308	232.380004883	232.399993896	
1063.29360158	232.339996338	232.100006104	
1090.55754008	231.759994507	231.800003052	
1117.82147859	231.36000061	231.5	
1145.08541709	231.070007324	231.100006104	
1172.34935559	231.160003662	231.100006104	
1199.61329409	230.660003662	230.699996948	
1226.87723259	230.059997559	230.100006104	
1254.1411711	229.580001831	229.5	
1281.4051096	228.75	228.899993896	
1308.6690481	228.369995117	228.5	
1335.9329866	228.130004883	228.100006104	
1363.1969251	227.699996948	227.600006104	
1390.46086361	226.720001221	226.699996948	
1417.72480211	226.130004883	226.100006104	
1444.98874061	225.820007324	225.899993896	
1472.25267911	225.589996338	225.600006104	
1499.51661761	225.399993896	225.399993896	
1526.78055612	225.080001831	225.100006104	
1554.04449462	224.919998169	224.899993896	
1581.30843312	224.61000061	224.600006104	
1608.57237162	224.380004883	224.399993896	
1635.83631012	223.86000061	223.899993896	
1663.10024863	223.479995728	223.5	
1690.36418713	223.130004883	223.100006104	
1717.62812563	222.729995728	222.699996948	
1744.89206413	222.179992676	222.199996948	
1772.15600264	221.600006104	221.600006104	
1799.41994114	220.990005493	221	
1826.68387964	220.520004272	220.5	
1853.94781814	220.130004883	220.100006104	
1881.21175664	219.529998779	219.600006104	
1908.47569515	218.88999939	218.899993896	
1935.73963365	218.220001221	218.199996948	
1963.00357215	217.399993896	217.399993896	
1990.26751065	216.740005493	216.800003052	
2017.53144915	215.880004883	215.899993896	
2044.79538766	215.020004272	215	
2072.05932616	214.11000061	214.100006104	
2099.32326466	213.350006104	213.399993896	
2126.58720316	212.419998169	212.5	
2153.85114166	211.839996338	211.899993896	
2181.11508017	211.369995117	211.399993896	
2208.37901867	210.789993286	211	
2235.64295717	210.770004272	210.699996948	
2262.90689567	210.369995117	210.399993896	
2290.17083417	210.119995117	210.100006104	
2317.43477268	209.630004883	209.600006104	
2344.69871118	209.25	209.199996948	
2371.96264968	208.830001831	208.899993896	
2399.22658818	208.919998169	208.899993896	
2426.49052669	208.309997559	208.399993896	
2453.75446519	207.820007324	207.899993896	
2481.01840369	207.369995117	207.399993896	
2508.28234219	206.919998169	206.899993896	
2535.54628069	206.649993896	206.600006104	
2562.8102192	206.38999939	206.399993896	
2590.0741577	206.050003052	206.100006104	
2617.3380962	205.720001221	205.699996948	
2644.6020347	205.119995117	205.100006104	
2671.8659732	204.36000061	204.399993896	
2699.12991171	203.679992676	203.699996948	
2726.39385021	203.100006104	203.100006104	
2753.65778871	204.559997559	202.5	
2780.92172721	202.119995117	202.199996948	
2808.18566571	201.940002441	201.899993896	
2835.44960422	201.86000061	201.899993896	
2862.71354272	202.350006104	202.300003052	
2889.97748122	204.119995117	203.899993896	
2917.24141972	205.339996338	205.300003052	
2944.50535822	206.570007324	206.5	
2971.76929673	207.259994507	207.199996948	
2999.03323523	207.720001221	207.699996948	
3026.29717373	207.910003662	207.899993896	
3053.56111223	208.119995117	208.100006104	
3080.82505074	208.220001221	208.199996948	
3108.08898924	208.38999939	208.399993896	
3135.35292774	208.61000061	208.600006104	
3162.61686624	208.830001831	208.800003052	
3189.88080474	209.050003052	209	
3217.14474325	208.929992676	208.899993896	
3244.40868175	208.850006104	208.899993896	
3271.67262025	208.589996338	208.600006104	
3298.93655875	208.61000061	208.699996948	
3326.20049725	209.130004883	209.100006104	
3353.46443576	208.539993286	208.600006104	
3380.72837426	208.440002441	208.199996948	
3407.99231276	207.36000061	207.699996948	
3435.25625126	207.119995117	207.199996948	
3462.52018976	206.570007324	207.199996948	
3489.78412827	207.300003052	207.300003052	1
3517.04806677	207.919998169	207.899993896	
3544.31200527	208.289993286	208.300003052	
3571.57594377	208.979995728	209	
3598.83988227	209.419998169	209.399993896	
3626.10382078	209.960006714	209.899993896	
3653.36775928	210.449996948	210.399993896	
3680.63169778	210.869995117	210.899993896	
3707.89563628	211.279998779	211.300003052	
3735.15957479	211.559997559	211.5	
3762.42351329	211.940002441	211.800003052	
3789.68745179	211.880004883	211.800003052	
3816.95139029	211.789993286	211.800003052	
3844.21532879	211.910003662	211.899993896	
3871.4792673	211.869995117	211.899993896	
3898.7432058	212.029998779	212	
3926.0071443	212.059997559	212.100006104	
3953.2710828	211.880004883	211.899993896	
3980.5350213	211.449996948	211.399993896	
4007.79895981	211.059997559	211.100006104	
4035.06289831	210.630004883	210.600006104	
4062.32683681	210.279998779	210.300003052	
4089.59077531	209.880004883	209.899993896	
4116.85471381	209.550003052	209.600006104	
4144.11865232	208.919998169	208.899993896	
4171.38259082	208.470001221	208.5	
4198.64652932	207.88999939	207.899993896	
4225.91046782	207.419998169	207.399993896	
4253.17440632	206.850006104	206.899993896	
4280.43834483	206.38999939	206.399993896	
4307.70228333	205.869995117	205.800003052	
4334.96622183	205.289993286	205.300003052	
4362.23016033	204.699996948	204.699996948	
4389.49409884	204	204.100006104	
4416.75803734	203.619995117	203.600006104	
4444.02197584	203.130004883	203.199996948	
4471.28591434	202.690002441	202.699996948	
4498.54985284	202.63999939	202.600006104	
4525.81379135	202.369995117	202.399993896	
4553.07772985	202.589996338	202.600006104	
4580.34166835	202.660003662	202.600006104	
4607.60560685	202.440002441	202.5	
4634.86954535	202.809997559	202.800003052	
4662.13348386	203.339996338	203.399993896	
4689.39742236	203.910003662	203.800003052	
4716.66136086	204.050003052	204	
4743.92529936	204.039993286	204	
4771.18923786	203.979995728	204	
4798.45317637	204.100006104	204.100006104	
4825.71711487	204.070007324	204	
4852.98105337	204.100006104	204.100006104	
4880.24499187	204.11000061	204.100006104	
4907.50893037	204.029998779	204.100006104	
4934.77286888	204.089996338	204.100006104	
4962.03680738	204	204	
4989.30074588	203.86000061	203.899993896	
5016.56468438	203.830001831	203.800003052	
5043.82862288	203.11000061	203.100006104	
5071.09256139	202.88999939	203	
5098.35649989	202.830001831	202.800003052	
5125.62043839	202.619995117	202.600006104	
5152.88437689	202.13999939	202.100006104	
5180.1483154	201.679992676	201.699996948	
5207.4122539	201.199996948	201.199996948	
5234.6761924	200.63999939	200.699996948	
5261.9401309	200.229995728	200.199996948	
5289.2040694	199.830001831	199.800003052	
5316.46800791	199.38999939	199.399993896	
5343.73194641	199.039993286	199.100006104	
5370.99588491	198.830001831	198.800003052	
5398.25982341	198.850006104	198.800003052	
5425.52376191	198.630004883	198.699996948	
5452.78770042	198.949996948	198.899993896	
5480.05163892	198.929992676	198.899993896	
5507.31557742	198.979995728	199	
5534.57951592	199.100006104	199.100006104	
5561.84345442	199.149993896	199.100006104	
5589.10739293	199.220001221	199.199996948	
5616.37133143	199.25	199.300003052	
5643.63526993	199.229995728	199.199996948	
5670.89920843	199.020004272	199	
5698.16314693	198.550003052	198.600006104	
5725.42708544	198.679992676	198.699996948	
5752.69102394	199.119995117	199.100006104	
5779.95496244	198.800003052	198.800003052	
5807.21890094	198.289993286	198.300003052	
5834.48283945	198.009994507	198	
5861.74677795	197.869995117	197.899993896	
5889.01071645	197.759994507	197.800003052	
5916.27465495	197.669998169	197.699996948	
5943.53859345	197.63999939	197.600006104	
5970.80253196	197.490005493	197.5	
5998.06647046	197.630004883	197.600006104	
6025.33040896	200.990005493	197.800003052	
6052.59434746	197.350006104	197.5	
6079.85828596	197.539993286	197.199996948	
6107.12222447	196.399993896	196.800003052	
6134.38616297	196.949996948	196.300003052	
6161.65010147	200.220001221	196.300003052	
6188.91403997	198.160003662	196.399993896	
6216.17797847	197.25	196.5	
6243.44191698	196.410003662	196.5	
6270.70585548	196.279998779	196.399993896	
6297.96979398	196.449996948	196.399993896	
6325.23373248	199.699996948	196.300003052	
6352.49767098	196.369995117	196.100006104	
6379.76160949	195.759994507	195.800003052	
6407.02554799	195.559997559	195.5	
6434.28948649	194.979995728	195	
6461.55342499	194.720001221	194.699996948	
6488.8173635	194.350006104	194.199996948	
6516.081302	194.509994507	194.300003052	
6543.3452405	197.130004883	194.300003052	
6570.609179	199.399993896	194.399993896	
6597.8731175	203	194.399993896	
6625.13705601	194.479995728	194.5	
6652.40099451	194.440002441	194.5	
6679.66493301	194.419998169	194.399993896	
6706.92887151	194.36000061	194.300003052	
6734.19281001	194.119995117	194.100006104	
6761.45674852	193.88999939	193.899993896	
6788.72068702	193.449996948	193.5	
6815.98462552	192.929992676	192.899993896	
6843.24856402	192.309997559	192.300003052	
6870.51250252	191.869995117	191.800003052	
6897.77644103	191.059997559	191.100006104	
6925.04037953	190.61000061	190.600006104	
6952.30431803	190.270004272	190.300003052	
6979.56825653	189.919998169	189.899993896	
7006.83219503	189.449996948	189.5	
7034.09613354	189.029998779	189	
7061.36007204	188.479995728	188.5	
7088.62401054	188.009994507	188	
7115.88794904	187.630004883	187.600006104	
7143.15188755	187.160003662	187.199996948	
7170.41582605	186.720001221	186.699996948	
7197.67976455	186.38999939	186.399993896	
7224.94370305	186.059997559	186.100006104	
7252.20764155	185.61000061	185.600006104	
7279.47158006	185.160003662	185.199996948	
7306.73551856	184.649993896	184.699996948	
7333.99945706	184.059997559	184.100006104	
7361.26339556	183.38999939	183.399993896	
7388.52733406	182.63999939	182.699996948	
7415.79127257	182.240005493	182.199996948	
7443.05521107	182.100006104	182.100006104	
7470.31914957	182.029998779	182	
7497.58308807	181.699996948	181.699996948	
7524.84702657	181.669998169	181.600006104	
7552.11096508	181.669998169	181.600006104	
7579.37490358	181.75	181.699996948	
7606.63884208	181.630004883	181.600006104	
7633.90278058	181.440002441	181.5	
7661.16671908	181.429992676	181.399993896	
7688.43065759	181.339996338	181.300003052	
7715.69459609	181.399993896	181.399993896	
7742.95853459	181.380004883	181.399993896	
7770.22247309	181.179992676	181.199996948	
7797.4864116	181.11000061	181.300003052	
7824.7503501	183.490005493	181.600006104	
7852.0142886	196.630004883	181.600006104	
7879.2782271	188.380004883	181.399993896	
7906.5421656	181.009994507	181.100006104	
7933.80610411	180.61000061	180.699996948	
7961.07004261	180.240005493	180.300003052	
7988.33398111	180.020004272	180	
8015.59791961	179.75	179.800003052	
8042.86185811	179.509994507	179.5	
8070.12579662	179.179992676	179.300003052	
8097.38973512	178.910003662	179.199996948	
8124.65367362	179.149993896	179.100006104	
8151.91761212	178.880004883	178.899993896	
8179.18155062	178.880004883	178.899993896	
8206.44548913	178.63999939	178.600006104	
8233.70942763	178.419998169	178.5	
8260.97336613	178.75	178.699996948	
8288.23730463	178.600006104	178.600006104	
8315.50124313	178.710006714	178.800003052	
8342.76518164	178.919998169	178.899993896	
8370.02912014	178.86000061	179	
8397.29305864	179.970001221	179.5	
8424.55699714	181.380004883	180.399993896	
8451.82093565	185.36000061	181.5	
8479.08487415	183.160003662	182.600006104	
8506.34881265	185.190002441	183.600006104	
8533.61275115	187.809997559	184.100006104	
8560.87668965	184.38999939	184.399993896	
8588.14062816	184.350006104	184.399993896	
8615.40456666	184.369995117	184.399993896	
8642.66850516	184.449996948	184.399993896	
8669.93244366	184.11000061	184.100006104	
8697.19638216	184.089996338	184.100006104	
8724.46032067	183.880004883	183.899993896	
8751.72425917	183.509994507	183.5	
8778.98819767	182.779998779	182.899993896	
8806.25213617	182.240005493	182.199996948	
8833.51607467	181.649993896	181.699996948	
8860.78001318	181.36000061	181.399993896	
8888.04395168	181.100006104	181.100006104	
8915.30789018	180.970001221	181	
8942.57182868	180.600006104	180.600006104	
8969.83576718	180.149993896	180.199996948	
8997.09970569	180.070007324	180	
9024.36364419	180.559997559	180.600006104	
9051.62758269	181.330001831	181.300003052	
9078.89152119	181.770004272	181.800003052	
9106.1554597	182.309997559	182.300003052	
9133.4193982	182.529998779	182.5	
9160.6833367	182.630004883	182.600006104	
9187.9472752	182.589996338	182.600006104	
9215.2112137	182.699996948	182.699996948	
9242.47515221	182.970001221	183	
9269.73909071	183.190002441	183.199996948	
9297.00302921	183.36000061	183.399993896	
9324.26696771	183.289993286	183.300003052	
9351.53090621	183.149993896	183.100006104	
9378.79484472	183.059997559	183.100006104	
9406.05878322	182.869995117	182.899993896	
9433.32272172	182.600006104	182.600006104	
9460.58666022	182.410003662	182.399993896	
9487.85059872	182.289993286	182.300003052	
9515.11453723	182.070007324	182.100006104	
9542.37847573	181.880004883	181.899993896	
9569.64241423	181.61000061	181.600006104	
9596.90635273	181.240005493	181.300003052	
9624.17029123	181.089996338	181.100006104	
9651.43422974	180.990005493	181	
9678.69816824	180.490005493	180.5	
9705.96210674	180.13999939	180.199996948	
9733.22604524	180.350006104	180.399993896	
9760.48998374	181.080001831	181.100006104	
9787.75392225	181.880004883	181.800003052	
9815.01786075	182.380004883	182.300003052	
9842.28179925	182.789993286	182.699996948	
9869.54573775	183.059997559	183.100006104	
9896.80967626	183.5	183.5	
9924.07361476	183.279998779	183.600006104	
9951.33755326	183.630004883	183.800003052	
9978.60149176	183.649993896	183.699996948	
10005.8654303	183.850006104	183.800003052	
10033.1293688	183.630004883	183.600006104	
10060.3933073	183.369995117	183.399993896	
10087.6572458	183.149993896	183.100006104	
10114.9211843	182.820007324	182.699996948	
10142.1851228	182.320007324	182.300003052	
10169.4490613	181.61000061	181.699996948	
10196.7129998	181.169998169	181.100006104	
10223.9769383	180.660003662	180.600006104	
10251.2408768	180.179992676	180.199996948	
10278.5048153	179.839996338	179.899993896	
10305.7687538	180.020004272	179.5	
10333.0326923	178.88999939	178.699996948	
10360.2966308	178.179992676	178	
10387.5605693	177.61000061	177.699996948	
10414.8245078	177.550003052	177.600006104	
10442.0884463	177.320007324	177.300003052	
10469.3523848	176.899993896	176.899993896	
10496.6163233	176.229995728	176.300003052	
10523.8802618	175.559997559	175.600006104	
10551.1442003	174.850006104	174.800003052	
10578.4081388	173.929992676	174	
10605.6720773	172.949996948	173	
10632.9360158	172.130004883	172.100006104	
10660.1999543	171.649993896	171.600006104	
10687.4638928	171.130004883	171.199996948	
10714.7278313	170.899993896	171	
10741.9917698	171.380004883	171.100006104	
10769.2557083	175.740005493	172.199996948	
10796.5196468	185.570007324	172.899993896	
10823.7835853	183.309997559	173	
10851.0475238	172.86000061	173.300003052	
10878.3114623	187.770004272	174.199996948	
10905.5754008	189.160003662	175.300003052	
10932.8393393	176.300003052	176.300003052	
10960.1032778	177.009994507	177	
10987.3672163	177.440002441	177.399993896	
11014.6311548	178.11000061	177.899993896	
11041.8950933	177.779998779	178.199996948	
11069.1590318	178.380004883	178.5	
11096.4229703	178.86000061	178.899993896	
11123.6869088	179.160003662	179.199996948	
11150.9508474	179.369995117	179.399993896	
11178.2147859	179.679992676	179.800003052	
11205.4787244	179.830001831	179.800003052	
11232.7426629	179.880004883	179.899993896	
11260.0066014	180.080001831	180.100006104	
11287.2705399	180.429992676	180.399993896	
11314.5344784	180.660003662	180.699996948	
11341.7984169	180.550003052	180.5	
11369.0623554	180.539993286	180.399993896	
11396.3262939	180.38999939	180.399993896	
11423.5902324	180.229995728	180.100006104	
11450.8541709	180.100006104	180	
11478.1181094	179.88999939	179.899993896	
11505.3820479	179.63999939	179.699996948	
11532.6459864	179.770004272	179.800003052	
11559.9099249	179.710006714	179.800003052	
11587.1738634	179.399993896	179.5	
11614.4378019	179.399993896	179.399993896	
11641.7017404	179	179	
11668.9656789	178.660003662	178.600006104	
11696.2296174	178.350006104	178.399993896	
11723.4935559	178.220001221	178.199996948	
11750.7574944	178.270004272	178.300003052	
11778.0214329	178.509994507	178.5	
11805.2853714	178.649993896	178.699996948	
11832.5493099	178.940002441	179	
11859.8132484	179.080001831	179.100006104	
11887.0771869	179.289993286	179.199996948	
11914.3411254	179.210006714	179.199996948	
11941.6050639	178.919998169	178.899993896	
11968.8690024	178.669998169	178.899993896	
11996.1329409	179.100006104	179.100006104	
12023.3968794	178.619995117	178.600006104	
12050.6608179	178.600006104	178.600006104	
12077.9247564	178.369995117	178.600006104	
12105.1886949	178.63999939	178.600006104	
12132.4526334	178.130004883	178.100006104	
12159.7165719	177.880004883	177.899993896	
12186.9805104	177.570007324	177.600006104	
12214.2444489	177.210006714	177.199996948	
12241.5083874	176.850006104	176.800003052	
12268.7723259	176.309997559	176.300003052	
12296.0362644	176.009994507	175.899993896	
12323.3002029	175.559997559	175.5	
12350.5641414	175.130004883	175.100006104	
12377.8280799	174.820007324	174.800003052	
12405.0920184	174.300003052	174.300003052	
12432.3559569	173.759994507	173.800003052	
12459.6198955	173.520004272	173.399993896	
12486.883834	173.11000061	173.100006104	
12514.1477725	172.660003662	172.699996948	
12541.411711	172.380004883	172.399993896	
12568.6756495	172.130004883	172.100006104	
12595.939588	171.940002441	172	
12623.2035265	171.880004883	171.899993896	
12650.467465	171.869995117	171.899993896	
12677.7314035	171.940002441	171.899993896	
12704.995342	172.38999939	172.399993896	
12732.2592805	172.949996948	172.899993896	
12759.523219	173.419998169	173.399993896	
12786.7871575	173.619995117	173.699996948	
12814.051096	174.169998169	174.300003052	
12841.3150345	174.270004272	174.399993896	
12868.578973	174.410003662	174.399993896	
12895.8429115	174.289993286	174.300003052	
12923.10685	174.13999939	174.100006104	
12950.3707885	173.929992676	173.899993896	
12977.634727	173.830001831	173.800003052	
13004.8986655	174.259994507	174.300003052	
13032.162604	174.619995117	174.600006104	
13059.4265425	174.630004883	174.699996948	
13086.690481	174.809997559	174.800003052	
13113.9544195	175.059997559	174.899993896	
13141.218358	175.289993286	175.199996948	
13168.4822965	175.100006104	175.100006104	
13195.746235	175.130004883	175.100006104	
13223.0101735	175.130004883	175.100006104	
13250.274112	175.300003052	175.399993896	
13277.5380505	177.559997559	175.100006104	
13304.801989	175.169998169	175.199996948	
13332.0659275	175.270004272	175.199996948	
13359.329866	175.369995117	175.199996948	
13386.5938045	176.380004883	175.199996948	
13413.857743	175.050003052	175.199996948	
13441.1216815	176.199996948	175.399993896	
13468.38562	175.949996948	175.699996948	
13495.6495585	179.059997559	176.100006104	
13522.913497	177.5	176.5	
13550.1774355	177.630004883	176.899993896	
13577.441374	179.059997559	177.100006104	
13604.7053125	177.960006714	177.199996948	
13631.969251	180.949996948	177.300003052	
13659.2331895	176.589996338	176.800003052	
13686.497128	176.580001831	176.699996948	
13713.7610665	176.770004272	176.600006104	
13741.025005	177.880004883	176.800003052	
13768.2889436	177.940002441	176.899993896	
13795.5528821	177.119995117	177.100006104	
13822.8168206	177.830001831	177	
13850.0807591	183.88999939	176.699996948	
13877.3446976	176.100006104	176.300003052	
13904.6086361	176.070007324	176	
13931.8725746	176.929992676	176	
13959.1365131	181.550003052	176	
13986.4004516	177.029998779	175.800003052	
14013.6643901	177.869995117	175.899993896	
14040.9283286	177.940002441	176	
14068.1922671	176.050003052	176.199996948	
14095.4562056	177.119995117	176.5	
14122.7201441	177	176.600006104	
14149.9840826	177.559997559	176.600006104	
14177.2480211	184.009994507	176.5	
14204.5119596	177.380004883	176.699996948	
14231.7758981	178.529998779	176.899993896	
14259.0398366	177.089996338	177.199996948	
14286.3037751	176.88999939	177.199996948	
14313.5677136	177.630004883	177.199996948	
14340.8316521	176.679992676	176.899993896	
14368.0955906	176.399993896	176.600006104	
14395.3595291	177.13999939	176.5	
14422.6234676	176.619995117	176.699996948	
14449.8874061	179.229995728	176.699996948	
14477.1513446	176.61000061	176.399993896	
14504.4152831	176.559997559	176.5	
14531.6792216	175.899993896	175.899993896	
14558.9431601	175.399993896	175.399993896	
14586.2070986	175.160003662	175.300003052	
14613.4710371	175.119995117	175.100006104	
14640.7349756	174.990005493	175	
14667.9989141	175.020004272	175	
14695.2628526	175	175	
14722.5267911	175.25	175.199996948	
14749.7907296	175.669998169	175.600006104	
14777.0546681	176.149993896	176.199996948	
14804.3186066	176.710006714	176.800003052	
14831.5825451	176.720001221	176.899993896	
14858.8464836	176.88999939	176.899993896	
14886.1104221	176.669998169	176.600006104	
14913.3743606	177.36000061	176.399993896	
14940.6382991	176.770004272	176.399993896	
14967.9022376	177.440002441	176.300003052	
14995.1661761	184.190002441	176.199996948	
15022.4301146	176.179992676	176.100006104	
15049.6940531	176.070007324	176.100006104	
15076.9579917	176.130004883	176.100006104	
15104.2219302	176.210006714	176.199996948	
15131.4858687	176.119995117	176.199996948	
15158.7498072	176.13999939	176.100006104	
15186.0137457	176.059997559	176.100006104	
15213.2776842	176.13999939	176.100006104	
15240.5416227	176.050003052	176	
15267.8055612	176.130004883	176.100006104	
15295.0694997	175.949996948	175.899993896	
15322.3334382	175.75	175.800003052	
15349.5973767	175.380004883	175.5	
15376.8613152	175.259994507	175.199996948	
15404.1252537	175.419998169	175.399993896	
15431.3891922	175.779998779	175.800003052	
15458.6531307	176.160003662	176.100006104	
15485.9170692	176.470001221	176.399993896	
15513.1810077	176.470001221	176.5	
15540.4449462	176.570007324	176.600006104	
15567.7088847	176.630004883	176.600006104	
15594.9728232	176.460006714	176.5	
15622.2367617	176.160003662	176.199996948	
15649.5007002	176.13999939	176.100006104	
15676.7646387	175.929992676	175.899993896	
15704.0285772	175.699996948	175.699996948	
15731.2925157	175.5	175.5	1
15758.5564542	175.350006104	175.399993896	
15785.8203927	175.169998169	175.199996948	
15813.0843312	174.910003662	174.899993896	
15840.3482697	174.820007324	174.800003052	
15867.6122082	174.880004883	174.699996948	
15894.8761467	175.169998169	175.100006104	
15922.1400852	175.220001221	175.199996948	
15949.4040237	175.220001221	175.199996948	
15976.6679622	175.089996338	175.199996948	
16003.9319007	175.199996948	175.199996948	
16031.1958392	175.320007324	175.300003052	
16058.4597777	175.399993896	175.399993896	
16085.7237162	175.330001831	175.399993896	
16112.9876547	175.229995728	175.199996948	
16140.2515932	174.880004883	174.899993896	
16167.5155317	174.490005493	174.5	
16194.7794702	174.050003052	174.300003052	
16222.0434087	174.419998169	174.399993896	
16249.3073472	174.169998169	174.300003052	
16276.5712857	174.270004272	174.199996948	
16303.8352242	173.899993896	173.899993896	
16331.0991627	173.470001221	173.399993896	
16358.3631012	173.289993286	173.300003052	
16385.6270398	173.029998779	173	
16412.8909783	172.940002441	172.899993896	
16440.1549168	172.600006104	172.600006104	
16467.4188553	172.63999939	172.600006104	
16494.6827938	172.63999939	172.600006104	
16521.9467323	172.75	172.699996948	
16549.2106708	172.850006104	172.899993896	
16576.4746093	173.169998169	173	
16603.7385478	173.199996948	173.199996948	
16631.0024863	172.960006714	173.199996948	
16658.2664248	173.460006714	173.199996948	
16685.5303633	173.160003662	173.100006104	
16712.7943018	173.289993286	173.300003052	
16740.0582403	173.380004883	173.300003052	
16767.3221788	173.369995117	173.300003052	
16794.5861173	173.259994507	173.199996948	
16821.8500558	173.279998779	173.300003052	
16849.1139943	172.960006714	173	
16876.3779328	172.830001831	172.800003052	
16903.6418713	172.259994507	172.300003052	
16930.9058098	171.699996948	171.699996948	
16958.1697483	171.270004272	171.300003052	
16985.4336868	171.169998169	171.100006104	
17012.6976253	170.809997559	170.800003052	
17039.9615638	170.580001831	170.600006104	
17067.2255023	170.259994507	170.199996948	
17094.4894408	169.660003662	169.699996948	
17121.7533793	169.36000061	169.399993896	
17149.0173178	169.289993286	169.199996948	
17176.2812563	171.649993896	168.699996948	
17203.5451948	168.309997559	168.399993896	
17230.8091333	168.86000061	168.399993896	
17258.0730718	168.369995117	168.300003052	
17285.3370103	168.119995117	168.100006104	
17312.6009488	167.850006104	167.800003052	
17339.8648873	167.619995117	167.600006104	
17367.1288258	167.479995728	167.5	
17394.3927643	167.380004883	167.399993896	
17421.6567028	167.380004883	167.399993896	
17448.9206413	167.380004883	167.399993896	
17476.1845798	167.169998169	167.199996948	
17503.4485183	166.880004883	166.899993896	
17530.7124568	166.720001221	166.699996948	
17557.9763953	166.399993896	166.399993896	
17585.2403338	166.149993896	166.100006104	
17612.5042723	165.779998779	165.800003052	
17639.7682108	165.679992676	165.699996948	
17667.0321493	165.410003662	165.399993896	
17694.2960879	165.330001831	165.300003052	
17721.5600264	164.63999939	164.699996948	
17748.8239649	164.399993896	164.399993896	
17776.0879034	164.210006714	164.199996948	
17803.3518419	164.009994507	164	
17830.6157804	163.759994507	163.699996948	
17857.8797189	163.369995117	163.399993896	
17885.1436574	162.880004883	162.899993896	
17912.4075959	162.649993896	162.699996948	
17939.6715344	162.429992676	162.600006104	
17966.9354729	162.380004883	162.5	
17994.1994114	162.320007324	162.399993896	
18021.4633499	162.419998169	162.399993896	
18048.7272884	162.419998169	162.300003052	
18075.9912269	162.130004883	162.100006104	
18103.2551654	162.179992676	162.199996948	
18130.5191039	161.919998169	162.100006104	
18157.7830424	162.13999939	162.100006104	
18185.0469809	162.199996948	162	
18212.3109194	161.929992676	162	
18239.5748579	161.990005493	162	
18266.8387964	162.419998169	162.300003052	
18294.1027349	162.460006714	162.600006104	
18321.3666734	162.86000061	162.899993896	
18348.6306119	163.460006714	163.399993896	
18375.8945504	163.839996338	163.899993896	
18403.1584889	164.089996338	164.100006104	
18430.4224274	164.240005493	164.199996948	
18457.6863659	164.330001831	164.399993896	
18484.9503044	164.369995117	164.399993896	
18512.2142429	164.490005493	164.5	
18539.4781814	164.229995728	164.300003052	
18566.7421199	164.369995117	164.399993896	
18594.0060584	164.11000061	164.100006104	
18621.2699969	164.210006714	164.199996948	
18648.5339354	164.210006714	164.199996948	
18675.7978739	164.660003662	164.600006104	
18703.0618124	164.789993286	164.800003052	
18730.3257509	165.100006104	165	
18757.5896894	164.679992676	164.699996948	
18784.8536279	164.600006104	164.600006104	
18812.1175664	164.630004883	164.5	
18839.3815049	164.440002441	164.399993896	
18866.6454434	164.330001831	164.300003052	
18893.9093819	164.279998779	164.300003052	
18921.1733204	164.369995117	164.399993896	
18948.4372589	164.580001831	164.600006104	
18975.7011974	164.630004883	164.699996948	
19002.965136	164.899993896	164.899993896	
19030.2290745	164.380004883	164.399993896	
19057.493013	164.419998169	164.399993896	
19084.7569515	164.630004883	164.600006104	
19112.02089	164.350006104	164.300003052	
19139.2848285	163.759994507	163.899993896	
19166.548767	163.669998169	163.699996948	
19193.8127055	163.529998779	163.5	
19221.076644	163.369995117	163.300003052	
19248.3405825	162.940002441	163	
19275.604521	163.119995117	163.100006104	
19302.8684595	163.61000061	163.600006104	
19330.132398	163.669998169	163.699996948	
19357.3963365	163.75	163.800003052	
19384.660275	163.899993896	163.899993896	
19411.9242135	163.5	163.5	
19439.188152	163.13999939	163.100006104	
19466.4520905	162.800003052	162.800003052	
19493.716029	162.660003662	162.699996948	
19520.9799675	162.529998779	162.600006104	
19548.243906	162.339996338	162.399993896	
19575.5078445	162.240005493	162.199996948	
19602.771783	162.130004883	162.100006104	
19630.0357215	162.210006714	162.199996948	
19657.29966	162.190002441	162.199996948	
19684.5635985	162.320007324	162.300003052	
19711.827537	162.300003052	162.300003052	
19739.0914755	162.210006714	162.199996948	
19766.355414	162.179992676	162.199996948	
19793.6193525	162.100006104	162.100006104	
19820.883291	162.039993286	162	
19848.1472295	162.11000061	162.100006104	
19875.411168	162.210006714	162.199996948	
19902.6751065	162.369995117	162.399993896	
19929.939045	162.699996948	162.600006104	
19957.2029835	162.899993896	162.899993896	
19984.466922	163.380004883	163.300003052	
20011.7308605	163.660003662	163.699996948	
20038.994799	164.130004883	164.100006104	
20066.2587375	164.660003662	164.699996948	
20093.522676	165.13999939	165.100006104	
20120.7866145	165.479995728	165.5	
20148.050553	165.880004883	165.899993896	
20175.3144915	166.190002441	166.199996948	
20202.57843	166.350006104	166.300003052	
20229.8423685	166.169998169	166.399993896	
20257.106307	166.25	166.300003052	
20284.3702455	166.580001831	166.600006104	
20311.6341841	166.61000061	166.600006104	
20338.8981226	166.539993286	166.5	
20366.1620611	166.5	166.399993896	
20393.4259996	166.339996338	166.399993896	
20420.6899381	166.25	166.300003052	
20447.9538766	166.089996338	166.100006104	
20475.2178151	165.86000061	165.899993896	
20502.4817536	165.779998779	165.800003052	
20529.7456921	165.729995728	165.699996948	
20557.0096306	165.649993896	165.5	
20584.2735691	165.619995117	165.600006104	1
20611.5375076	165.449996948	165.399993896	
20638.8014461	165.330001831	165.399993896	
20666.0653846	165.699996948	165.199996948	
20693.3293231	164.759994507	164.699996948	
20720.5932616	164.86000061	164.399993896	
20747.8572001	164.160003662	164.100006104	
20775.1211386	163.839996338	163.899993896	
20802.3850771	163.910003662	163.699996948	
20829.6490156	163.119995117	163.399993896	
20856.9129541	163.270004272	163.300003052	
20884.1768926	162.800003052	162.800003052	
20911.4408311	162.820007324	162.800003052	
20938.7047696	163.039993286	162.899993896	
20965.9687081	162.770004272	162.699996948	
20993.2326466	162.369995117	162.399993896	
21020.4965851	162.36000061	162.399993896	
21047.7605236	162.279998779	162.300003052	
21075.0244621	162.119995117	162.100006104	
21102.2884006	161.949996948	162.100006104	
21129.5523391	162.130004883	162.100006104	
21156.8162776	162.199996948	162.100006104	
21184.0802161	162.580001831	162.600006104	
21211.3441546	162.86000061	162.800003052	
21238.6080931	163.190002441	163.199996948	
21265.8720316	163.460006714	163.399993896	
21293.1359701	163.600006104	163.600006104	
21320.3999086	164.130004883	163.600006104	
21347.6638471	163.630004883	163.600006104	
21374.9277856	163.910003662	163.899993896	
21402.1917241	163.880004883	163.899993896	
21429.4556626	163.720001221	163.699996948	
21456.7196011	163.63999939	163.600006104	
21483.9835396	163.880004883	163.899993896	
21511.2474781	163.869995117	163.899993896	
21538.5114166	163.949996948	164	
21565.7753551	164.190002441	164.199996948	
21593.0392936	164.330001831	164.300003052	
21620.3032322	164.380004883	164.399993896	
21647.5671707	164.449996948	164.5	
21674.8311092	164.619995117	164.600006104	
21702.0950477	164.630004883	164.600006104	
21729.3589862	164.630004883	164.600006104	
21756.6229247	164.630004883	164.600006104	
21783.8868632	164.539993286	164.5	
21811.1508017	164.36000061	164.399993896	
21838.4147402	164.169998169	164.199996948	
21865.6786787	163.910003662	163.899993896	
21892.9426172	163.660003662	163.800003052	
21920.2065557	163.830001831	163.600006104	
21947.4704942	163.470001221	163.5	
21974.7344327	163.309997559	163.399993896	
22001.9983712	163.419998169	163.399993896	
22029.2623097	163.380004883	163.399993896	
22056.5262482	163.589996338	163.699996948	
22083.7901867	163.869995117	163.899993896	
22111.0541252	163.869995117	163.899993896	
22138.3180637	164.490005493	163.899993896	
22165.5820022	163.929992676	163.899993896	
22192.8459407	163.929992676	163.899993896	
22220.1098792	163.850006104	163.800003052	
22247.3738177	163.880004883	163.800003052	
22274.6377562	163.86000061	163.899993896	
22301.9016947	164.179992676	164.100006104	
22329.1656332	164.630004883	164.399993896	
22356.4295717	164.539993286	164.600006104	
22383.6935102	164.580001831	164.600006104	
22410.9574487	164.850006104	164.800003052	
22438.2213872	165.039993286	165	
22465.4853257	164.929992676	164.899993896	
22492.7492642	165.059997559	165.100006104	
22520.0132027	165.130004883	165.100006104	
22547.2771412	165.089996338	165.100006104	
22574.5410797	165.070007324	165.100006104	
22601.8050182	165.169998169	165.199996948	
22629.0689567	165.179992676	165.199996948	
22656.3328952	165.070007324	165.100006104	
22683.5968337	164.88999939	164.899993896	
22710.8607722	164.669998169	164.600006104	
22738.1247107	164.630004883	164.600006104	
22765.3886492	164.380004883	164.399993896	
22792.6525877	164.339996338	164.300003052	
22819.9165262	164	164	
22847.1804647	163.759994507	163.800003052	
22874.4444032	163.61000061	163.600006104	
22901.7083417	163.419998169	163.399993896	
22928.9722803	163.220001221	163.199996948	
22956.2362188	163.089996338	163.100006104	
22983.5001573	162.770004272	162.699996948	
23010.7640958	162.509994507	162.5	
23038.0280343	162.160003662	162.199996948	
23065.2919728	161.619995117	161.600006104	
23092.5559113	161.119995117	161.199996948	
23119.8198498	160.919998169	160.899993896	
23147.0837883	160.809997559	160.699996948	
23174.3477268	160.380004883	160.300003052	
23201.6116653	160.009994507	160	
23228.8756038	159.710006714	159.699996948	
23256.1395423	159.570007324	159.5	
23283.4034808	159.369995117	159.399993896	
23310.6674193	159.229995728	159.199996948	
23337.9313578	159.190002441	159.199996948	
23365.1952963	159.270004272	159.199996948	
23392.4592348	159.380004883	159.399993896	
23419.7231733	159.830001831	159.5	
23446.9871118	159.679992676	159.699996948	
23474.2510503	159.600006104	159.600006104	
23501.5149888	159.699996948	159.699996948	
23528.7789273	159.75	159.699996948	
23556.0428658	164.75	160.100006104	
23583.3068043	161.13999939	161.100006104	
23610.5707428	160.009994507	160	
23637.8346813	159.990005493	160	
23665.0986198	160.050003052	160	
23692.3625583	160.050003052	160.100006104	
23719.6264968	160.130004883	160.100006104	
23746.8904353	160.130004883	160.100006104	
23774.1543738	160.160003662	160.199996948	
23801.4183123	160.13999939	160.100006104	
23828.6822508	159.869995117	159.899993896	
23855.9461893	167.179992676	160	
23883.2101278	162.949996948	160	
23910.4740663	162.919998169	159.899993896	
23937.7380048	159.86000061	159.800003052	
23965.0019433	160.380004883	160.199996948	
23992.2658818	159.580001831	159.199996948	
24019.5298203	157.119995117	154.699996948	
24046.7937588	156.240005493	154.100006104	
24074.0576973	163.13999939	156.199996948	
24101.3216358	158.929992676	157.899993896	
24128.5855743	159.309997559	157.899993896	
24155.8495128	160.380004883	158.100006104	
24183.1134513	158.809997559	157.699996948	
24210.3773898	157.86000061	157.300003052	
24237.6413283	157.660003662	157.399993896	
24264.9052669	158.160003662	157.699996948	
24292.1692054	163.960006714	157.699996948	
24319.4331439	163.410003662	158	
24346.6970824	164.809997559	158.5	
24373.9610209	166.270004272	158.800003052	
24401.2249594	164	158.600006104	
24428.4888979	159.270004272	159.5	
24455.7528364	160.740005493	160.550003052	
24483.0167749	159.789993286	160.820007324	
24510.2807134	171.149993896	161.440002441	
24537.5446519	160.11000061	160.38999939	
24564.8085904	167.13999939	159.470001221	
24592.0725289	179.020004272	159.61000061	
24619.3364674	160.119995117	159.550003052	
24646.6004059	181.850006104	160.210006714	
24673.8643444	179.350006104	160.36000061	
24701.1282829	170.690002441	159.690002441	
24728.3922214	163.070007324	160.020004272	
24755.6561599	159.910003662	159.600006104	
24782.9200984	159.990005493	159.850006104	
24810.1840369	171.779998779	160.020004272	
24837.4479754	160.210006714	159.660003662	
24864.7119139	159.61000061	159.470001221	
24891.9758524	159.619995117	159.63999939	
24919.2397909	160.100006104	159.36000061	
24946.5037294	159.539993286	159.330001831	
24973.7676679	159.520004272	159.330001831	
25001.0316064	159.440002441	159.13999939	
25028.2955449	160.229995728	160.050003052	
25055.5594834	159.399993896	159.419998169	
25082.8234219	158.990005493	159.11000061	
25110.0873604	173.559997559	159.080001831	
25137.3512989	158.100006104	158.330001831	
25164.6152374	159.11000061	158.830001831	
25191.8791759	161.369995117	158.630004883	
25219.1431144	161.570007324	158.669998169	
25246.4070529	158.36000061	158.520004272	
25273.6709914	158.149993896	158.61000061	
25300.9349299	158.050003052	158.330001831	
25328.1988684	159.460006714	157.940002441	
25355.4628069	161.440002441	156.440002441	
25382.7267454	162.960006714	157.240005493	
25409.9906839	157.25	156.580001831	
25437.2546224	171.029998779	156.020004272	
25464.5185609	155.330001831	155.25	
25491.7824994	169.669998169	155.080001831	
25519.0464379	168.559997559	154.850006104	
25546.3103764	165.809997559	154.61000061	
25573.574315	154.36000061	154.38999939	
25600.8382535	154.289993286	154.270004272	
25628.102192	154.259994507	154.169998169	
25655.3661305	162.660003662	154.520004272	
25682.630069	159.339996338	154.550003052	
25709.8940075	155.5	154.11000061	
25737.157946	154.910003662	154.660003662	
25764.4218845	155.270004272	154.520004272	
25791.685823	154.61000061	154.600006104	
25818.9497615	155.179992676	154.830001831	
25846.2137	155.029998779	154.830001831	
25873.4776385	154.929992676	155	
25900.741577	156.490005493	155	
25928.0055155	155.059997559	155.050003052	
25955.269454	156.330001831	156.020004272	
25982.5333925	154.820007324	154.880004883	
26009.797331	156.059997559	154.880004883	
26037.0612695	154.570007324	154.75	
26064.325208	154.940002441	154.720001221	
26091.5891465	154.729995728	154.630004883	
26118.853085	154.899993896	154.690002441	
26146.1170235	155.809997559	154.270004272	
26173.380962	154.630004883	154.270004272	
26200.6449005	157.38999939	154.240005493	
26227.908839	158.240005493	153.990005493	
26255.1727775	155.830001831	153.580001831	
26282.436716	153.630004883	152.88999939	
26309.7006545	155	151.86000061	
26336.964593	151.399993896	151.270004272	
26364.2285315	155.61000061	151.080001831	
26391.49247	156.059997559	150.190002441	
26418.7564085	148.470001221	148.740005493	
26446.020347	144	144.5	
26473.2842855	142.289993286	142.029998779	
26500.548224	151.570007324	142.020004272	
26527.8121625	145.5	141.880004883	
26555.076101	141.369995117	141.740005493	
26582.3400395	141.729995728	141.740005493	
26609.603978	143.229995728	137.410003662	
26636.8679165	134.86000061	134.690002441	
26664.131855	139.800003052	137.820007324	
26691.3957935	139.440002441	138.440002441	
26718.659732	139.440002441	139.36000061	
26745.9236705	145.11000061	145.279998779	
26773.187609	149.850006104	150.020004272	
26800.4515475	156.5	152.970001221	
26827.715486	155.440002441	152.410003662	
26854.9794245	153.240005493	153.36000061	
26882.2433631	157.490005493	153.830001831	
26909.5073016	155.149993896	155.190002441	
26936.7712401	157.020004272	155.960006714	
26964.0351786	157.880004883	156.240005493	
26991.2991171	168.470001221	157.240005493	
27018.5630556	155.839996338	156.029998779	
27045.8269941	156	155.880004883	
27073.0909326	204.190002441	155.669998169	
